%YAML 1.1
%TAG !u! tag:unity3d.com,2011:
--- !u!1045 &1
EditorBuildSettings:
  m_ObjectHideFlags: 0
  serializedVersion: 2
  m_Scenes:
  - enabled: 1
    path: Assets/Scenes/MainMenu.unity
    guid: 54862836b8c34484f82a83326920749f
  - enabled: 1
    path: Assets/Scenes/GameScene.unity
    guid: 4cfb2b7bad5d77542b62a1c38059108d
  m_configObjects: {}
